^F:\YANDEXDISK\UE_PART_1\C++\HOMEWORK_18_5\HOMEWORK_18_5.CPP
F:\YANDEXDISK\UE_PART_1\C++\HOMEWORK_18_5\DEBUG\VC142.PDB
F:\YANDEXDISK\UE_PART_1\C++\HOMEWORK_18_5\DEBUG\VC142.IDB
F:\YANDEXDISK\UE_PART_1\C++\HOMEWORK_18_5\DEBUG\HOMEWORK_18_5.OBJ
