^F:\YANDEXDISK\UE_PART_1\C++\HOMEWORK_14_3\HOMEWORK_14_3.CPP
F:\YANDEXDISK\UE_PART_1\C++\HOMEWORK_14_3\DEBUG\VC142.PDB
F:\YANDEXDISK\UE_PART_1\C++\HOMEWORK_14_3\DEBUG\VC142.IDB
F:\YANDEXDISK\UE_PART_1\C++\HOMEWORK_14_3\DEBUG\HOMEWORK_14_3.OBJ
